Find odds for the sports which are accessible through the Odds API — toa_sports_odds • oddsapiR
…
    Examples

# \donttest{
   try(toa_sports_odds(sport_key = 'basketball_ncaab', 
                       regions = 'us', 
                       markets = 'spreads', 
                       odds_format = 'decimal',
                       date_format = 'iso'))
#> ── Sports Odds data from the-odds-api.com ──────────── oddsapiR 0.0.3 ──
#> ℹ Data updated: 2023-03-19 21:44:07 UTC
#> # A tibble: 280 × 14
#>    id    sport…¹ sport…² comme…³ home_…⁴ away_…⁵ bookm…⁶ bookm…⁷ bookm…⁸
#>    <chr> <chr>   <chr>   <chr>   <chr>   <chr>   <chr>   <chr>   <chr>  
#>  1 cee2… basket… NCAAB   2023-0… North … Sam Ho… draftk… DraftK… 2023-0…
#>  2 cee2… basket… NCAAB   2023-0… North … Sam Ho… draftk… DraftK… 2023-0…
#>  3 cee2… basket… NCAAB   2023-0… North … Sam Ho… willia… Willia… 2023-0…
#>  4 cee2… basket… NCAAB   2023-0… North … Sam Ho… willia… Willia… 2023-0…
#>  5 cee2… basket… NCAAB   2023-0… North … Sam Ho… fanduel FanDuel 2023-0…
#>  6 cee2… basket… NCAAB   2023-0… North … Sam Ho… fanduel FanDuel 2023-0…
#>  7 ee2d… basket… NCAAB   2023-0… Marque… Michig… fanduel FanDuel 2023-0…
#>  8 ee2d… basket… NCAAB   2023-0… Marque… Michig… fanduel FanDuel 2023-0…
#>  9 ee2d… basket… NCAAB   2023-0… Marque… Michig… draftk… DraftK… 2023-0…
#> 10 ee2d… basket… NCAAB   2023-0… Marque… Michig… draftk… DraftK… 2023-0…
#> # … with 270 more rows, 5 more variables: market_key <chr>,
#> #   market_last_update <chr>, outcomes_name <chr>,
#> #   outcomes_price <dbl>, outcomes_point <dbl>, and abbreviated
#> #   variable names ¹​sport_key, ²​sport_title, ³​commence_time,
#> #   ⁴​home_team, ⁵​away_team, ⁶​bookmaker_key, ⁷​bookmaker,
#> #   ⁸​bookmaker_last_update
…
